<svg width="170" height="133" viewBox="0 0 170 133" fill="none" xmlns="http://www.w3.org/2000/svg">
<path fill-rule="evenodd" clip-rule="evenodd" d="M0 118.804L22 106.975L2.06273 95.804L0 118.804ZM4.95451 101.217L15.1278 106.916L3.90248 112.952L4.95451 101.217Z" fill="#ACB4B9"/>
<path fill-rule="evenodd" clip-rule="evenodd" d="M76.7804 9.80402L83 3.0021L73 1.80402L76.7804 9.80402ZM75.1819 3.33857L80.3637 3.9593L77.1409 7.48407L75.1819 3.33857Z" fill="#ACB4B9"/>
<path fill-rule="evenodd" clip-rule="evenodd" d="M149 97.2846L166.136 112.804L170 88.804L149 97.2846ZM154.979 98.3364L165.86 93.9404L163.858 106.378L154.979 98.3364Z" fill="#ACB4B9"/>
<path fill-rule="evenodd" clip-rule="evenodd" d="M14.3239 84.804L13 84.762L13.1758 79.8098L18.0819 79.7192L14.6114 70.804L25 74.8822L24.49 76.0345L16.898 73.0536L19.9653 80.9326L14.4577 81.034L14.3239 84.804Z" fill="#0597F2"/>
<path fill-rule="evenodd" clip-rule="evenodd" d="M151.077 73.9064C149.848 73.9064 148.849 74.9093 148.849 76.1419C148.849 77.3744 149.848 78.3773 151.077 78.3773C152.305 78.3773 153.305 77.3744 153.305 76.1419C153.305 74.9093 152.305 73.9064 151.077 73.9064ZM151.077 79.663C149.142 79.663 147.567 78.0833 147.567 76.1419C147.567 74.2004 149.142 72.6207 151.077 72.6207C153.012 72.6207 154.586 74.2004 154.586 76.1419C154.586 78.0833 153.012 79.663 151.077 79.663Z" fill="#0597F2"/>
<path fill-rule="evenodd" clip-rule="evenodd" d="M3.87229 51.4879C2.64385 51.4879 1.64435 52.4907 1.64435 53.7233C1.64435 54.9559 2.64385 55.9587 3.87229 55.9587C5.10073 55.9587 6.10023 54.9559 6.10023 53.7233C6.10023 52.4907 5.10073 51.4879 3.87229 51.4879ZM3.87229 57.2444C1.93737 57.2444 0.362946 55.6647 0.362946 53.7233C0.362946 51.7819 1.93737 50.2021 3.87229 50.2021C5.80722 50.2021 7.38164 51.7819 7.38164 53.7233C7.38164 55.6647 5.80722 57.2444 3.87229 57.2444Z" fill="#0597F2"/>
<path fill-rule="evenodd" clip-rule="evenodd" d="M21.8307 92.7824C20.6023 92.7824 19.6028 93.7853 19.6028 95.0178C19.6028 96.2504 20.6023 97.2533 21.8307 97.2533C23.0592 97.2533 24.0587 96.2504 24.0587 95.0178C24.0587 93.7853 23.0592 92.7824 21.8307 92.7824ZM21.8307 98.539C19.8958 98.539 18.3214 96.9593 18.3214 95.0178C18.3214 93.0764 19.8958 91.4967 21.8307 91.4967C23.7657 91.4967 25.3401 93.0764 25.3401 95.0178C25.3401 96.9593 23.7657 98.539 21.8307 98.539Z" fill="#0597F2"/>
<path fill-rule="evenodd" clip-rule="evenodd" d="M104.58 8.56458C100.392 8.56458 96.985 11.9833 96.985 16.185C96.985 20.3871 100.392 23.8059 104.58 23.8059C108.768 23.8059 112.175 20.3871 112.175 16.185C112.175 11.9833 108.768 8.56458 104.58 8.56458ZM104.58 28.1889C97.9833 28.1889 92.6163 22.8043 92.6163 16.185C92.6163 9.56615 97.9833 4.18158 104.58 4.18158C111.177 4.18158 116.544 9.56615 116.544 16.185C116.544 22.8043 111.177 28.1889 104.58 28.1889Z" fill="#0597F2"/>
<path fill-rule="evenodd" clip-rule="evenodd" d="M91.6232 126.94C91.0367 127.717 89.9574 128.245 88.7071 128.245H83.2889C82.0391 128.245 80.9593 127.717 80.3729 126.94H28.6792V127.592C28.6792 130.116 31.3321 132.161 34.6049 132.161H139.33C142.603 132.161 145.256 130.116 145.256 127.592V126.94H91.6232Z" fill="#0597F2"/>
<path fill-rule="evenodd" clip-rule="evenodd" d="M140.184 123.437H138.903V48.0063C138.903 45.8197 137.13 44.0403 134.95 44.0403H85.5466V42.7546H134.95C137.837 42.7546 140.184 45.1104 140.184 48.0063V123.437Z" fill="#ACB4B9"/>
<mask id="mask0" mask-type="alpha" maskUnits="userSpaceOnUse" x="0" y="0" width="170" height="133">
<path fill-rule="evenodd" clip-rule="evenodd" d="M0 132.804H169.698V0.867004H0V132.804Z" fill="white"/>
</mask>
<g mask="url(#mask0)">
<path fill-rule="evenodd" clip-rule="evenodd" d="M28.9034 123.197H30.1848V74.1407H28.9034V123.197Z" fill="#ACB4B9"/>
<path fill-rule="evenodd" clip-rule="evenodd" d="M24.4724 125.842V126.069C24.4724 129.074 26.9083 131.518 29.903 131.518H139.185C142.179 131.518 144.615 129.074 144.615 126.069V125.842H90.6554C89.8882 126.924 88.6414 127.583 87.3194 127.583H81.7688C80.4468 127.583 79.2 126.924 78.4324 125.842H24.4724ZM139.185 132.804H29.903C26.2019 132.804 23.191 129.783 23.191 126.069V124.557H79.1492L79.3345 124.876C79.8505 125.766 80.7603 126.297 81.7688 126.297H87.3194C88.3275 126.297 89.2377 125.766 89.7532 124.876L89.9386 124.557H145.897V126.069C145.897 129.783 142.886 132.804 139.185 132.804Z" fill="#ACB4B9"/>
<path fill-rule="evenodd" clip-rule="evenodd" d="M42.8195 109.174H79.6681V107.888H42.8195V109.174Z" fill="#ACB4B9"/>
<path fill-rule="evenodd" clip-rule="evenodd" d="M42.8195 100.472H72.8441V99.186H42.8195V100.472Z" fill="#ACB4B9"/>
<path fill-rule="evenodd" clip-rule="evenodd" d="M58.5331 77.1548L58.8458 77.4416C60.9093 79.3311 63.25 80.8033 65.8021 81.8173C70.7539 83.805 75.3256 83.5328 78.2198 82.9851C76.5173 81.2318 74.4059 78.2871 73.7891 74.0704C73.4709 71.9927 73.5734 69.8597 74.0958 67.731L74.1424 67.5398L74.2748 67.3941C79.9732 61.098 83.1118 52.9671 83.1118 44.4986C83.1118 25.7841 67.9378 10.5587 49.2861 10.5587C30.6343 10.5587 15.4599 25.7841 15.4599 44.4986C15.4599 45.9313 15.5492 47.3044 15.7248 48.579C16.7969 57.7564 21.691 66.2048 29.156 71.7746C35.0193 76.1336 41.9808 78.438 49.2861 78.438C52.2577 78.438 55.2314 78.0433 58.1235 77.265L58.5331 77.1548ZM73.969 84.9373C71.3955 84.9373 68.385 84.528 65.2293 83.2611C62.6332 82.23 60.2421 80.7544 58.1167 78.8734C55.2224 79.6161 52.2534 79.9924 49.2861 79.9924C41.6463 79.9924 34.3658 77.5826 28.2326 73.0221C20.4258 67.1978 15.3079 58.3603 14.1883 48.7757C14.0055 47.4467 13.9107 46.002 13.9107 44.4986C13.9107 24.927 29.7801 9.0047 49.2861 9.0047C68.7921 9.0047 84.6606 24.927 84.6606 44.4986C84.6606 53.2877 81.4285 61.7288 75.5549 68.2903C75.1214 70.1576 75.0419 72.0223 75.3204 73.8368C76.0329 78.711 79.0545 81.7508 80.3201 82.8313L81.4554 83.8003L80.0125 84.1757C78.6077 84.5408 76.4997 84.9373 73.969 84.9373Z" fill="#0597F2"/>
<path fill-rule="evenodd" clip-rule="evenodd" d="M128.057 118.839C128.888 104.543 123.153 98.669 117.222 98.6501C117.629 103.929 112.083 108.119 110.365 108.119C108.743 108.119 103.44 104.353 103.44 99.572C103.44 99.2699 103.463 98.96 103.507 98.6501C94.5362 100.256 90.5733 108.965 91.4835 118.839H128.057Z" fill="#0597F2"/>
<path fill-rule="evenodd" clip-rule="evenodd" d="M116.292 64.9523L115.01 64.9488C115.015 63.1776 114.322 61.5027 113.059 60.2328C111.797 58.9626 110.129 58.2631 108.364 58.2631C106.599 58.2631 104.931 58.9626 103.668 60.2328C102.406 61.5027 101.713 63.1776 101.718 64.9488L100.436 64.9523C100.431 62.8368 101.256 60.8384 102.761 59.3251C104.266 57.811 106.256 56.9774 108.364 56.9774C110.472 56.9774 112.462 57.811 113.967 59.3247C115.471 60.8384 116.297 62.8368 116.292 64.9523Z" fill="#ACB4B9"/>
<path fill-rule="evenodd" clip-rule="evenodd" d="M120.225 82.7991L119.067 82.2484C121.231 77.6661 120.92 73.0581 118.165 68.9228C114.557 63.5044 108.703 63.3985 108.456 63.3968L108.334 63.3972L108.275 63.3968C108.025 63.3985 102.171 63.5044 98.5624 68.9228C97.1811 70.9967 96.463 73.4399 96.487 75.9887L95.2055 76.0002C95.1795 73.1922 95.9723 70.4978 97.4971 68.2084C101.478 62.2302 107.988 62.1132 108.263 62.1111L108.346 62.1115L108.469 62.1111C108.74 62.1132 115.249 62.2302 119.231 68.2084C122.206 72.6754 122.559 77.8572 120.225 82.7991Z" fill="#ACB4B9"/>
<path fill-rule="evenodd" clip-rule="evenodd" d="M95.6904 118.839H96.9718V111.476H95.6904V118.839Z" fill="#ACB4B9"/>
<path fill-rule="evenodd" clip-rule="evenodd" d="M119.756 118.839H121.037V111.476H119.756V118.839Z" fill="#ACB4B9"/>
<path fill-rule="evenodd" clip-rule="evenodd" d="M98.9137 78.2332L97.9518 77.3838C97.9689 77.364 99.6864 75.3952 101.565 72.3656C102.841 70.3085 104.138 67.1752 104.152 67.1439C104.239 66.9313 104.433 66.7822 104.66 66.7522C104.889 66.7239 105.113 66.8169 105.252 66.999C105.282 67.0385 108.305 70.9788 111.217 72.9913C113.142 74.3216 115.26 75.3519 117.512 76.0535L117.131 77.2813C114.757 76.5412 112.522 75.4543 110.49 74.0499C108.234 72.4908 105.996 69.9429 104.909 68.6246C104.41 69.7509 103.54 71.6152 102.653 73.0449C100.714 76.1713 98.9863 78.1505 98.9137 78.2332Z" fill="#ACB4B9"/>
<path fill-rule="evenodd" clip-rule="evenodd" d="M101.658 97.5423L101.204 96.3402C102.752 95.7513 103.677 94.1116 103.677 92.8666V91.2783H104.958V92.8666C104.958 94.8166 103.539 96.8266 101.658 97.5423Z" fill="#ACB4B9"/>
<path fill-rule="evenodd" clip-rule="evenodd" d="M115.482 97.5618C113.205 96.7261 112.394 94.5884 112.394 92.8664V91.2785H113.675V92.8664C113.675 94.1538 114.265 95.7464 115.922 96.3545L115.482 97.5618Z" fill="#ACB4B9"/>
<path fill-rule="evenodd" clip-rule="evenodd" d="M98.9867 83.6828L98.3708 83.4021C97.4999 83.0725 96.8352 82.3401 96.5905 81.4384L96.1634 79.8655C95.893 78.8695 96.3654 77.8152 97.2872 77.358C98.0299 77.0301 99.0106 77.0678 99.4732 77.8975L98.3546 78.525C98.2644 78.363 97.8335 78.5207 97.8288 78.5224C97.4815 78.6955 97.2897 79.1237 97.3995 79.5274L97.8266 81.1002C97.965 81.6094 98.3422 82.0221 98.8355 82.2038L98.8799 82.2222L99.5164 82.5124L98.9867 83.6828Z" fill="#ACB4B9"/>
<path fill-rule="evenodd" clip-rule="evenodd" d="M108.626 93.7067C107.146 93.7067 105.733 93.1517 104.648 92.1442L102.479 90.129C100.206 87.675 98.8575 84.4813 98.6828 81.1359L98.6922 76.8065L99.9736 76.8095L99.9633 81.1037C100.121 84.1055 101.342 87.0052 103.401 89.2359L105.518 91.2C106.366 91.9873 107.47 92.421 108.626 92.421C109.808 92.421 110.93 91.9702 111.785 91.1516L113.82 89.2029C115.781 87.0047 116.948 84.1762 117.109 81.2315L117 78.9317L118.28 78.8709L118.392 81.2345L118.39 81.2666C118.22 84.5237 116.93 87.6536 114.758 90.0806L114.723 90.1162L112.67 92.0816C111.575 93.1295 110.139 93.7067 108.626 93.7067Z" fill="#ACB4B9"/>
<path fill-rule="evenodd" clip-rule="evenodd" d="M89.5313 118.839H88.2499V112.196C88.2499 110.409 88.4806 108.751 88.9355 107.267C90.7461 101.368 95.5856 97.025 101.566 95.9326L102.447 95.7714L102.314 96.6603C102.273 96.9341 102.252 97.2093 102.252 97.478C102.252 101.88 107.422 105.301 108.733 105.301C109.37 105.301 111.153 104.363 112.714 102.666C113.717 101.576 115.365 99.341 115.148 96.6161L116.425 96.5133C116.615 98.8944 115.632 101.389 113.656 103.538C112.057 105.276 109.941 106.587 108.733 106.587C106.607 106.587 100.971 102.449 100.971 97.478C100.971 97.4429 100.971 97.4073 100.972 97.3717C95.8461 98.6103 91.7456 102.481 90.1605 107.645C89.7428 109.007 89.5313 110.537 89.5313 112.196V118.839Z" fill="#ACB4B9"/>
<path fill-rule="evenodd" clip-rule="evenodd" d="M128.521 118.839H127.239V112.196C127.239 110.536 127.028 109.005 126.61 107.645C124.942 102.207 120.484 98.2036 114.976 97.1973L115.205 95.9326C121.186 97.025 126.025 101.368 127.835 107.267C128.29 108.749 128.521 110.408 128.521 112.196V118.839Z" fill="#ACB4B9"/>
<path fill-rule="evenodd" clip-rule="evenodd" d="M31.3317 36.96H67.5332V35.4056H31.3317V36.96Z" fill="#0597F2"/>
<path fill-rule="evenodd" clip-rule="evenodd" d="M48.0985 46.1186H67.5332V44.5641H48.0985V46.1186Z" fill="#0597F2"/>
<path fill-rule="evenodd" clip-rule="evenodd" d="M31.3317 46.1186H39.7006V44.5641H31.3317V46.1186Z" fill="#0597F2"/>
<path fill-rule="evenodd" clip-rule="evenodd" d="M31.3317 55.2776H67.5332V53.7236H31.3317V55.2776Z" fill="#0597F2"/>
<path fill-rule="evenodd" clip-rule="evenodd" d="M129.966 39.4368H141.427L145.073 44.9988L148.554 39.4368H160.547V15.7333H129.966V39.4368ZM145.098 47.3765L140.737 40.7225H128.684V14.4476H161.828V40.7225H149.262L145.098 47.3765Z" fill="#ACB4B9"/>
<path fill-rule="evenodd" clip-rule="evenodd" d="M145.646 31.8343H144.365V28.1211H145.006C147.149 28.1211 148.892 26.3717 148.892 24.2215C148.892 22.0718 147.149 20.3228 145.006 20.3228V19.0371C147.855 19.0371 150.173 21.3625 150.173 24.2215C150.173 26.8628 148.195 29.0498 145.646 29.367V31.8343Z" fill="#0597F2"/>
<path fill-rule="evenodd" clip-rule="evenodd" d="M141.12 24.2217H139.838C139.838 21.3627 142.156 19.0368 145.006 19.0368V20.3225C142.863 20.3225 141.12 22.0715 141.12 24.2217Z" fill="#0597F2"/>
<path fill-rule="evenodd" clip-rule="evenodd" d="M144.365 36.0519H145.646V33.9433H144.365V36.0519Z" fill="#0597F2"/>
</g>
</svg>
