<svg width="9" height="12" viewBox="0 0 9 12" fill="none" xmlns="http://www.w3.org/2000/svg">
<path fill-rule="evenodd" clip-rule="evenodd" d="M6.42857 4.23529H9L4.5 9.17647L0 4.23529H2.57143V0H6.42857V4.23529ZM0 12.0006V10.5889H9V12.0006H0Z" fill="#0597F2"/>
</svg>
