<svg width="10" height="13" viewBox="0 0 10 13" fill="none" xmlns="http://www.w3.org/2000/svg">
<path fill-rule="evenodd" clip-rule="evenodd" d="M7.5 0.722222H10V2.16667H0V0.722222H2.5L3.21429 0H6.78571L7.5 0.722222ZM2.14329 12.9998C1.35757 12.9998 0.714715 12.3498 0.714715 11.5553V2.88867H9.28614V11.5553C9.28614 12.3498 8.64329 12.9998 7.85757 12.9998H2.14329Z" fill="#BBBDBF"/>
</svg>
