<svg width="15" height="10" viewBox="0 0 15 10" fill="none" xmlns="http://www.w3.org/2000/svg">
<path fill-rule="evenodd" clip-rule="evenodd" d="M7.5 0C4.09091 0 1.17955 2.07333 0 5C1.17955 7.92667 4.09091 10 7.5 10C10.9091 10 13.8205 7.92667 15 5C13.8205 2.07333 10.9091 0 7.5 0ZM7.5 8.33366C5.61818 8.33366 4.09091 6.84033 4.09091 5.00033C4.09091 3.16033 5.61818 1.66699 7.5 1.66699C9.38182 1.66699 10.9091 3.16033 10.9091 5.00033C10.9091 6.84033 9.38182 8.33366 7.5 8.33366ZM5.45321 5C5.45321 3.89333 6.36685 3 7.49867 3C8.63049 3 9.54412 3.89333 9.54412 5C9.54412 6.10667 8.63049 7 7.49867 7C6.36685 7 5.45321 6.10667 5.45321 5Z" fill="#BBBDBF"/>
</svg>
