<svg width="35" height="49" viewBox="0 0 35 49" fill="none" xmlns="http://www.w3.org/2000/svg">
<path fill-rule="evenodd" clip-rule="evenodd" d="M6.95814 6.49461C7.43241 6.20833 8.0481 6.36212 8.33334 6.83813C9.02665 7.99513 9.1619 9.40461 8.70132 10.6731C8.24075 11.9417 7.23369 12.9334 5.96125 13.3714C5.43776 13.5516 4.86783 13.2718 4.68827 12.7464C4.50871 12.221 4.78753 11.649 5.31102 11.4687C6.01097 11.2278 6.56495 10.6823 6.8183 9.98445C7.07166 9.28664 6.99726 8.51129 6.61588 7.87484C6.33064 7.39884 6.48388 6.78089 6.95814 6.49461Z" fill="#4A4A4A"/>
<path fill-rule="evenodd" clip-rule="evenodd" d="M5.34737 11.413C5.88376 11.2763 6.42906 11.6018 6.56533 12.1402L5.59411 12.3878L4.62289 12.6355C4.48662 12.0971 4.81098 11.5498 5.34737 11.413ZM5.59411 12.3878L4.62289 12.6355L4.71239 12.9898C4.77062 13.2205 4.85572 13.5582 4.9632 13.9856C5.17817 14.8406 5.48261 16.0548 5.84048 17.4915C5.97471 18.0304 6.51877 18.358 7.05567 18.2233C7.59258 18.0886 7.91902 17.5425 7.78479 17.0037C7.42651 15.5653 7.12169 14.3496 6.90643 13.4935C6.7988 13.0654 6.71355 12.7272 6.6552 12.4959L6.56533 12.1402L5.59411 12.3878Z" fill="#4A4A4A"/>
<path fill-rule="evenodd" clip-rule="evenodd" d="M1.75966 0.370706C2.10912 -0.0600083 2.74031 -0.12484 3.16945 0.2259C4.60975 1.40307 4.97049 3.46306 4.01643 5.0626C4.01058 5.0724 4.00457 5.08211 3.99839 5.09171C3.64334 5.6434 3.22029 6.14779 2.73935 6.59293C2.14791 7.27548 1.89357 8.18997 2.0488 9.08268L2.04924 9.08522C2.1814 9.85699 2.61466 10.544 3.25308 10.9942C3.8915 11.4444 4.68239 11.6206 5.45062 11.4837C5.99553 11.3866 6.51568 11.7513 6.61241 12.2982C6.70914 12.8451 6.34581 13.3672 5.8009 13.4642C4.50745 13.6947 3.17584 13.3981 2.10094 12.6401C1.0264 11.8824 0.297046 10.7261 0.0742652 9.42721C-0.188721 7.91244 0.254749 6.36024 1.27762 5.21551C1.30039 5.19002 1.32445 5.16572 1.34969 5.14269C1.71487 4.80961 2.03591 4.43085 2.30494 4.01574C2.73738 3.27567 2.56801 2.3284 1.90394 1.78566C1.4748 1.43492 1.4102 0.801421 1.75966 0.370706Z" fill="#4A4A4A"/>
<path fill-rule="evenodd" clip-rule="evenodd" d="M13.225 0.665039C13.5951 0.665039 13.935 0.869757 14.1092 1.19749L16.2469 5.22048C16.3243 5.36614 16.3648 5.52869 16.3648 5.69377V16.242H16.4316L16.4535 16.2423C16.822 16.2503 17.1636 16.0515 17.34 15.7279L22.9183 3.58827C23.1499 3.08428 23.7445 2.86384 24.2469 3.0957L30.8953 6.1639C31.1373 6.27556 31.325 6.47928 31.417 6.73009C31.5091 6.98089 31.4979 7.25815 31.3859 7.50064L26.2232 18.6792C25.9904 19.1831 25.3947 19.4023 24.8926 19.1687C24.3905 18.9351 24.1721 18.3372 24.4049 17.8333L29.1448 7.57L24.319 5.34294L19.148 16.5962C19.1412 16.6109 19.1341 16.6254 19.1267 16.6398C18.6026 17.6491 17.5549 18.2738 16.4218 18.2535H15.3628C14.8093 18.2535 14.3607 17.8032 14.3607 17.2478V5.94521L13.225 3.808L11.9714 6.16706C11.711 6.65717 11.104 6.84259 10.6157 6.58119C10.1273 6.3198 9.94261 5.71059 10.203 5.22048L12.3408 1.19749C12.515 0.869757 12.8549 0.665039 13.225 0.665039Z" fill="#4A4A4A"/>
<path fill-rule="evenodd" clip-rule="evenodd" d="M24.5453 17.3598C24.8852 16.9214 25.5148 16.8426 25.9516 17.1838C26.8935 17.9195 27.4859 19.0172 27.5853 20.2109C27.5876 20.2388 27.5888 20.2668 27.5888 20.2947V33.4561C29.8271 33.2375 31.7881 31.7609 32.5961 29.5969L32.5975 29.5931C33.7765 26.4747 32.2494 22.9831 29.1643 21.7433C28.6506 21.5369 28.4008 20.9515 28.6065 20.4358C28.8122 19.9202 29.3955 19.6695 29.9093 19.876C34.0082 21.5231 36.0374 26.1616 34.472 30.3049C33.3687 33.2572 30.6588 35.2512 27.5888 35.4748V41.9867C27.5888 42.5421 27.1401 42.9924 26.5867 42.9924C26.0333 42.9924 25.5846 42.5421 25.5846 41.9867V20.3406C25.5227 19.7215 25.2108 19.154 24.7207 18.7712C24.2839 18.43 24.2054 17.7981 24.5453 17.3598Z" fill="#4A4A4A"/>
<path fill-rule="evenodd" clip-rule="evenodd" d="M21.3664 6.92813C21.6081 6.42843 22.2076 6.21996 22.7055 6.46251L24.5333 7.35293C25.0312 7.59548 25.2389 8.19719 24.9972 8.69689C24.7555 9.1966 24.156 9.40507 23.6581 9.16252L21.8304 8.2721C21.3325 8.02955 21.1248 7.42784 21.3664 6.92813Z" fill="#4A4A4A"/>
<path fill-rule="evenodd" clip-rule="evenodd" d="M20.0735 10.415C20.3151 9.91525 20.9146 9.70678 21.4125 9.94932L23.2403 10.8397C23.7382 11.0823 23.9459 11.684 23.7042 12.1837C23.4626 12.6834 22.8631 12.8919 22.3652 12.6493L20.5374 11.7589C20.0395 11.5164 19.8318 10.9147 20.0735 10.415Z" fill="#4A4A4A"/>
<path fill-rule="evenodd" clip-rule="evenodd" d="M18.3773 13.7987C18.6225 13.3007 19.2235 13.0965 19.7196 13.3426L21.5367 14.2437C22.0329 14.4898 22.2364 15.093 21.9912 15.5909C21.7461 16.0889 21.1451 16.2931 20.6489 16.0471L18.8318 15.1459C18.3357 14.8999 18.1322 14.2967 18.3773 13.7987Z" fill="#4A4A4A"/>
<path fill-rule="evenodd" clip-rule="evenodd" d="M11.0878 8.89355C11.6412 8.89355 12.0899 9.34384 12.0899 9.8993V16.0786C12.0899 16.0905 12.0897 16.1023 12.0893 16.1142C12.0471 17.3082 11.0703 18.2541 9.87998 18.2537C9.87977 18.2537 9.88019 18.2537 9.87998 18.2537H6.09729H6.09614V17.248L6.09845 18.2537C6.09806 18.2537 6.09768 18.2537 6.09729 18.2537C4.09251 18.259 2.46996 19.8916 2.46997 21.9039V43.3586C2.46997 43.3582 2.46997 43.3579 2.46997 43.3575L1.4679 43.3598H2.46997V43.3586C2.47516 45.361 4.09117 46.9831 6.08625 46.9886L6.08546 47.9943L6.08777 46.9886L22.5027 46.9886C23.5768 46.9877 24.595 46.5075 25.2812 45.6782C25.6348 45.2509 26.2666 45.1921 26.6923 45.547C27.1181 45.9019 27.1766 46.536 26.823 46.9633C25.7564 48.2524 24.1738 48.9987 22.5042 49H6.08546L6.08314 49C2.98375 48.9929 0.472973 46.4729 0.465823 43.3621L0.46582 43.3598V21.9039C0.465812 18.7821 2.98347 16.2494 6.09384 16.2422L6.09614 16.2422L9.87998 16.2422C9.98734 16.2423 10.0767 16.1597 10.0857 16.0534V16.0786H11.0878L10.0864 16.043C10.0862 16.0465 10.086 16.05 10.0857 16.0534V9.8993C10.0857 9.34384 10.5344 8.89355 11.0878 8.89355Z" fill="#4A4A4A"/>
</svg>
