<svg width="16" height="13" viewBox="0 0 16 13" fill="none" xmlns="http://www.w3.org/2000/svg">
<path fill-rule="evenodd" clip-rule="evenodd" d="M7.20021 0.8125H9.60028V2.4375H0V0.8125H2.40007L3.20009 0H6.40019L7.20021 0.8125ZM0.802794 11.376C0.802794 12.2697 1.52282 13.001 2.40284 13.001H7.20298C8.08301 13.001 8.80303 12.2697 8.80303 11.376V3.25098H0.802794V11.376ZM10.3998 3.25098H16V4.87598H10.3998V3.25098ZM10.3998 9.75H13.5999V11.375H10.3998V9.75ZM15.2 6.49902H10.3998V8.12402H15.2V6.49902Z" fill="#979797"/>
</svg>
