<svg width="21" height="21" viewBox="0 0 21 21" fill="none" xmlns="http://www.w3.org/2000/svg">
<path fill-rule="evenodd" clip-rule="evenodd" d="M10.5 21C16.299 21 21 16.299 21 10.5C21 4.70101 16.299 0 10.5 0C4.70101 0 0 4.70101 0 10.5C0 16.299 4.70101 21 10.5 21Z" fill="#0077B5"/>
<path fill-rule="evenodd" clip-rule="evenodd" d="M6.33404 7.3374H6.31805C5.51842 7.3374 5 6.82243 5 6.16965C5 5.50418 5.53375 5 6.34936 5C7.16431 5 7.66541 5.50291 7.6814 6.16775C7.6814 6.82052 7.16431 7.3374 6.33404 7.3374ZM16.3333 14.9167H13.8285V11.4306C13.8285 10.5181 13.4367 9.89515 12.5751 9.89515C11.9161 9.89515 11.5496 10.3155 11.379 10.7206C11.3227 10.8487 11.3237 11.021 11.3247 11.1986L11.325 11.2712V14.9167H8.84352C8.84352 14.9167 8.87551 8.74137 8.84352 8.18004H11.325V9.2373C11.4716 8.77503 12.2646 8.11527 13.53 8.11527C15.0999 8.11527 16.3333 9.08427 16.3333 11.1708V14.9167ZM7.49483 8.18004H5.28587V14.9167H7.49483V8.18004Z" fill="white"/>
</svg>
